<?xml version="1.0" encoding="UTF-8" standalone="no"?>
<svg xmlns="http://www.w3.org/2000/svg" height="96" viewBox="0 0 96 96.000001" width="96" version="1.1">
 <g transform="translate(67.86 -78.51)">
  <g transform="matrix(0 -1 -1 0 373.5 516.5)">
   <g transform="matrix(-.9996 0 0 1 575.9 -611)">
    <g transform="matrix(-1 0 0 1 576 611)">
     <rect style="color:#000000" transform="scale(-1,1)" height="96" width="96.04" y="345.4" x="-438" fill="none"/>
     <path style="color-rendering:auto;color:#000000;shape-rendering:auto;block-progression:tb;text-decoration-line:none;image-rendering:auto;text-indent:0;text-transform:none" d="m51.05 6.229c-10.23 0-18.92 6.305-23.07 15.31l-0.2773 0.6035-0.6621 0.04883c-9.44 0.69-16.92 8.85-16.92 18.78 0 10.38 8.127 18.9 18.17 18.9h22.75 21.21c7.532 0 13.62-6.396 13.62-14.15 0-5.88-3.53-10.81-8.537-12.94l-0.6523-0.2773-0.03125-0.707c-0.64-14.17-11.78-25.57-25.6-25.57zm-2.637 3.932h2.715 0.002c11.71 0.00004 21.23 9.518 21.23 21.23v0.002 0.002c-0.005 1.438-0.3113 2.844-0.6055 4.248 5.55 0.01369 10.07 4.535 10.07 10.09h-0.002c-0.00004 5.561-4.532 10.09-10.09 10.09l-42.77-0.02148c-8.132 0.00028-14.75-6.617-14.75-14.75-0.00027-8.131 6.616-14.75 14.75-14.75h0.002 0.0059c0.5376 0.003 1.068 0.09102 1.602 0.1523 2.078-8.669 9.098-15.25 17.85-16.3z" transform="matrix(0 -1 -1 0 438 441.4)" fill="#808080"/>
     <path style="color:#000000" d="m358.2 384.9c0 2.433 1.973 4.406 4.406 4.406 0.4832 0 0.9467-0.081 1.382-0.2252 0.0442-0.014 0.0898-0.026 0.1334-0.042 0.3713-0.1122 5.768-1.757 10.61-4.143h-0.001-0.003-0.003-0.001c-5.286-2.549-10.73-4.17-10.73-4.17-0.4347-0.1434-0.8988-0.2222-1.382-0.2222-2.433 0-4.406 1.973-4.406 4.406z" fill="#808080"/>
     <path style="color:#000000" d="m350 400.7c0 3.064 2.484 5.548 5.548 5.548 0.6084 0 1.192-0.1031 1.74-0.2835 0.0557-0.018 0.1131-0.033 0.168-0.053 0.4676-0.1412 7.263-2.212 13.36-5.217h-0.001-0.004-0.003-0.001c-6.656-3.21-13.52-5.251-13.52-5.251-0.5474-0.1807-1.132-0.2799-1.74-0.2799-3.064 0-5.548 2.484-5.548 5.548z" fill="#808080"/>
    </g>
   </g>
  </g>
 </g>
</svg>
